{
  "assetsPath": "resources",
  "publicPath": "public",

  "stylus": {
    "files": {
      "src": "resources/stylus/app.styl",
      "dest": "public/css/styles.css"
    }
  },

  "pug": {
    "files": {
      "src": "resources/pug",
      "exclude": "resources/pug/parts/*.*",
      "dest": "public",
      "watch": "resources/pug/**"
    }
  },


  "img": {
    "folder": "resources/img",
    "outputFolder": "public/img"
  },

  "iconfont": {
    "src": "resources/iconfont/*.svg",
    "dest": "resources/fonts/iconfont"

  },

  "copy":{
    "fonts": {
      "src": "resources/fonts/**/*.*",
      "dest": "public/fonts",
      "watch": "resources/fonts/**"
    }
  },

  "js": {
    "vendor": "resources/js/vendor/*.js",
    "base": "resources/js/app.js",
    "class": "resources/js/class/*.js",
    "pages": "resources/js/pages/*.js"
  }
  
}

